{
  "master": { "master": true, "owner": true, "admin": true, "user": true },
  "owner": { "master": false, "owner": true, "admin": true, "user": true },
  "admin": { "master": false, "owner": false, "admin": true, "user": true },
  "user": { "master": false, "owner": false, "admin": false, "user": true }
}
